.....
----------------------------------------------------------------------
Ran 5 tests in 0.000s

OK
Name               Stmts   Miss Branch BrPart  Cover   Missing
--------------------------------------------------------------
Diplomacy.py          46      0     30      0   100%
TestDiplomacy.py      29      0      0      0   100%
--------------------------------------------------------------
TOTAL                 75      0     30      0   100%
