......
----------------------------------------------------------------------
Ran 6 tests in 0.001s

OK
Name               Stmts   Miss Branch BrPart  Cover   Missing
--------------------------------------------------------------
Diplomacy.py          67      0     38      1    99%   59->31
TestDiplomacy.py      36      0      0      0   100%
--------------------------------------------------------------
TOTAL                103      0     38      1    99%
