............................
----------------------------------------------------------------------
Ran 28 tests in 0.002s

OK
Name               Stmts   Miss Branch BrPart  Cover   Missing
--------------------------------------------------------------
Diplomacy.py          73      1     42      4    96%   24->26, 36, 38->33, 39->41
TestDiplomacy.py      98      0      2      1    99%   191->exit
--------------------------------------------------------------
TOTAL                171      1     44      5    97%
