............
----------------------------------------------------------------------
Ran 12 tests in 0.001s

OK
Name               Stmts   Miss Branch BrPart  Cover   Missing
--------------------------------------------------------------
Diplomacy.py          53      0     34      0   100%
TestDiplomacy.py      88      0      0      0   100%
--------------------------------------------------------------
TOTAL                141      0     34      0   100%
